\relax 
\@writefile{toc}{\contentsline {section}{\numberline {1}Introduction}{\thepage }}
\@writefile{toc}{\contentsline {section}{\numberline {2}The Pioneering Journey of Google and Facebook}{\thepage }}
\@writefile{toc}{\contentsline {subsection}{\numberline {2.1} {\subsecit History} }{\thepage }}
\@writefile{toc}{\contentsline {subsection}{\numberline {2.2}Data Center locations}{\thepage }}
\@writefile{toc}{\contentsline {subsubsection}{\numberline {2.2.1}Google Data Center Location}{\thepage }}
\@writefile{toc}{\contentsline {subsubsection}{\numberline {2.2.2}Facebook Data Center Location}{\thepage }}
\@writefile{toc}{\contentsline {subsection}{\numberline {2.3}Google Vs Facebook: Measuring Efficiency}{\thepage }}
\@writefile{toc}{\contentsline {subsubsection}{\numberline {2.3.1}Power Efficiency}{\thepage }}
\@writefile{lof}{\contentsline {figure}{\numberline {1}{\ignorespaces PUE data for all large-scale Google data centers}}{\thepage }}
\@writefile{lof}{\contentsline {figure}{\numberline {2}{\ignorespaces PUE of Facebook Data Centers}}{\thepage }}
\@writefile{lof}{\contentsline {figure}{\numberline {3}{\ignorespaces PUE of Facebook vs Google in 2015}}{\thepage }}
\@writefile{toc}{\contentsline {subsubsection}{\numberline {2.3.2}Water Efficiency}{\thepage }}
\@writefile{lof}{\contentsline {figure}{\numberline {4}{\ignorespaces WUE of Facebook Data Centers}}{\thepage }}
\@writefile{lof}{\contentsline {figure}{\numberline {5}{\ignorespaces Energy efficiency model: Taken from 'The case for energy proportional computing}}{\thepage }}
\@writefile{toc}{\contentsline {subsection}{\numberline {2.4}Servers}{\thepage }}
\@writefile{lof}{\contentsline {figure}{\numberline {6}{\ignorespaces Google data center: LEDs are used for durability and energy efficiency}}{\thepage }}
\@writefile{lof}{\contentsline {figure}{\numberline {7}{\ignorespaces Facebook data center: LEDs are used for durability and energy efficiency}}{\thepage }}
\@writefile{toc}{\contentsline {subsection}{\numberline {2.5}Cooling and Temperature}{\thepage }}
\@writefile{lof}{\contentsline {figure}{\numberline {8}{\ignorespaces The interior of a hot hut row}}{\thepage }}
\@writefile{toc}{\contentsline {subsection}{\numberline {2.6}Renewable Energy }{\thepage }}
\bibstyle{abbrv}
\bibdata{sigproc}
\bibstyle{plain}
\bibdata{sigproc}
\@writefile{lof}{\contentsline {figure}{\numberline {9}{\ignorespaces Facebook carbon usage}}{\thepage }}
\@writefile{lof}{\contentsline {figure}{\numberline {10}{\ignorespaces Google POP: taken from Network POP Case Study}}{\thepage }}
\@writefile{toc}{\contentsline {subsection}{\numberline {2.7} Best practices by Google and Facebook }{\thepage }}
\@writefile{toc}{\contentsline {section}{\numberline {3}Conclusions}{\thepage }}
\@writefile{toc}{\contentsline {subsection}{\numberline {3.1}References}{\thepage }}
