\relax 
\citation{PCLwebsite}
\citation{nguyen20133d}
\citation{babahajiani2014object}
\@writefile{toc}{\contentsline {section}{\numberline {1}Introduction}{\thepage }}
\@writefile{toc}{\contentsline {section}{\numberline {2}Related Research}{\thepage }}
\@writefile{toc}{\contentsline {subsection}{\numberline {2.1}3D Point Cloud Segmentation: A survey}{\thepage }}
\@writefile{toc}{\contentsline {subsection}{\numberline {2.2}Object Recognition in 3D Point Cloud of Urban Street Scene}{\thepage }}
\citation{PCLwebsite}
\bibstyle{plain}
\bibdata{sigproc}
\bibcite{babahajiani2014object}{1}
\bibcite{nguyen20133d}{2}
\bibcite{PCLwebsite}{3}
\@writefile{toc}{\contentsline {subsection}{\numberline {2.3}Nitin put ur papers here}{\thepage }}
\@writefile{toc}{\contentsline {section}{\numberline {3} Point Cloud Library }{\thepage }}
\@writefile{toc}{\contentsline {subsection}{\numberline {3.1}Point Cloud Data}{\thepage }}
\@writefile{toc}{\contentsline {subsection}{\numberline {3.2}Polygon File Format}{\thepage }}
\@writefile{toc}{\contentsline {section}{\numberline {4}NITIN EDIT HERE FOR UR SEGMENTATION}{\thepage }}
\@writefile{toc}{\contentsline {section}{\numberline {5}Visualization}{\thepage }}
\@writefile{lof}{\contentsline {figure}{\numberline {1}{\ignorespaces Image using PCLVisualizer}}{\thepage }}
\@writefile{lof}{\contentsline {figure}{\numberline {2}{\ignorespaces Image using CloudViewer}}{\thepage }}
\@writefile{toc}{\contentsline {section}{\numberline {6}Conclusions}{\thepage }}
\@writefile{toc}{\contentsline {section}{\numberline {7}References}{\thepage }}
\@writefile{lof}{\contentsline {figure}{\numberline {3}{\ignorespaces Ply file using PCLVisualizer}}{\thepage }}
